{
  "project_info": {
    "project_number": "128908244743",
    "firebase_url": "https://login-5b7a8.firebaseio.com",
    "project_id": "login-5b7a8",
    "storage_bucket": "login-5b7a8.appspot.com"
  },
  "client": [
    {
      "client_info": {
        "mobilesdk_app_id": "1:128908244743:android:cb672f2d1eafa29a",
        "android_client_info": {
          "package_name": "br.com.ch.jairo.googlelogin"
        }
      },
      "oauth_client": [
        {
          "client_id": "128908244743-uhbi1lcvgput1j02gs1mr0i8h50m6e62.apps.googleusercontent.com",
          "client_type": 1,
          "android_info": {
            "package_name": "br.com.ch.jairo.googlelogin",
            "certificate_hash": "926c0dcb86d21d21a2cb5275af0e65b477ff78fa"
          }
        },
        {
          "client_id": "128908244743-htait7152lfmrhomk4resgsj3g420pi0.apps.googleusercontent.com",
          "client_type": 3
        }
      ],
      "api_key": [
        {
          "current_key": "AIzaSyADPaa5nGpO63TcttUAPyLL3U1HGU_KgK4"
        }
      ],
      "services": {
        "analytics_service": {
          "status": 1
        },
        "appinvite_service": {
          "status": 2,
          "other_platform_oauth_client": [
            {
              "client_id": "128908244743-htait7152lfmrhomk4resgsj3g420pi0.apps.googleusercontent.com",
              "client_type": 3
            }
          ]
        },
        "ads_service": {
          "status": 2
        }
      }
    }
  ],
  "configuration_version": "1"
}